cordic.c:22:6:vypocet_korekcni_uhel	24	static
cordic.c:33:6:vypocet_korekce_amplitudy	24	static
cordic.c:43:6:vypocet_mocniny	24	static
cordic.c:54:6:vypocet_TDPHI	24	static
cordic.c:77:6:cordic_rotacni_PK	12	static
cordic.c:112:6:cordic_rotacni	16	static
